[
    {
        "admin_role_id": 1,
        "full_name": "Dagoja Superadmin",
        "email": "dagojasuperadmin@gmail.com",
        "password": "d6a17bdecdc5407753ef51e4dfcec7b62dac515e5a58e864a0510cafe2ea0972",
        "profile_image_name": null,
        "profile_image_source": null,
        "status": "active"
    }
]