[
    {
      "province_id": 1,
      "name": "BALI",
      "country_id": 1
    },
    {
      "province_id": 2,
      "name": "BANGKA BELITUNG",
      "country_id": 1
    },
    {
      "province_id": 3,
      "name": "BANTEN",
      "country_id": 1
    },
    {
      "province_id": 4,
      "name": "BENGKULU",
      "country_id": 1
    },
    {
      "province_id": 5,
      "name": "DAERAH ISTIMEWA YOGYAKARTA",
      "country_id": 1
    },
    {
      "province_id": 6,
      "name": "DKI JAKARTA",
      "country_id": 1
    },
    {
      "province_id": 7,
      "name": "GORONTALO",
      "country_id": 1
    },
    {
      "province_id": 8,
      "name": "PAPUA BARAT",
      "country_id": 1
    },
    {
      "province_id": 9,
      "name": "JAMBI",
      "country_id": 1
    },
    {
      "province_id": 10,
      "name": "JAWA BARAT",
      "country_id": 1
    },
    {
      "province_id": 11,
      "name": "JAWA TENGAH",
      "country_id": 1
    },
    {
      "province_id": 12,
      "name": "JAWA TIMUR",
      "country_id": 1
    },
    {
      "province_id": 13,
      "name": "KALIMANTAN BARAT",
      "country_id": 1
    },
    {
      "province_id": 14,
      "name": "KALIMANTAN SELATAN",
      "country_id": 1
    },
    {
      "province_id": 15,
      "name": "KALIMANTAN TENGAH",
      "country_id": 1
    },
    {
      "province_id": 16,
      "name": "KALIMANTAN TIMUR",
      "country_id": 1
    },
    {
      "province_id": 17,
      "name": "KEPULAUAN RIAU",
      "country_id": 1
    },
    {
      "province_id": 18,
      "name": "LAMPUNG",
      "country_id": 1
    },
    {
      "province_id": 19,
      "name": "MALUKU",
      "country_id": 1
    },
    {
      "province_id": 20,
      "name": "MALUKU UTARA",
      "country_id": 1
    },
    {
      "province_id": 21,
      "name": "ACEH",
      "country_id": 1
    },
    {
      "province_id": 22,
      "name": "NUSA TENGGARA BARAT",
      "country_id": 1
    },
    {
      "province_id": 23,
      "name": "NUSA TENGGARA TIMUR",
      "country_id": 1
    },
    {
      "province_id": 24,
      "name": "PAPUA",
      "country_id": 1
    },
    {
      "province_id": 25,
      "name": "RIAU",
      "country_id": 1
    },
    {
      "province_id": 26,
      "name": "SULAWESI BARAT",
      "country_id": 1
    },
    {
      "province_id": 27,
      "name": "SULAWESI SELATAN",
      "country_id": 1
    },
    {
      "province_id": 28,
      "name": "SULAWESI TENGAH",
      "country_id": 1
    },
    {
      "province_id": 29,
      "name": "SULAWESI TENGGARA",
      "country_id": 1
    },
    {
      "province_id": 30,
      "name": "SULAWESI UTARA",
      "country_id": 1
    },
    {
      "province_id": 31,
      "name": "SUMATERA BARAT",
      "country_id": 1
    },
    {
      "province_id": 32,
      "name": "SUMATERA SELATAN",
      "country_id": 1
    },
    {
      "province_id": 33,
      "name": "SUMATERA UTARA",
      "country_id": 1
    },
    {
      "province_id": 34,
      "name": "KALIMANTAN UTARA",
      "country_id": 1
    }
   ]